Solution/Seq_detector_1011/result.vcd
$date
  Sat Feb 10 22:18:09 2024
$end
$version
  GHDL v0
$end
$timescale
  1 fs
$end
$scope module standard $end
$upscope $end
$scope module std_logic_1164 $end
$upscope $end
$scope module seq_det_tb $end
$var reg 1 ! clk $end
$var reg 1 " reset $end
$var reg 1 # seq $end
$var reg 1 $ det $end
$scope module uut $end
$var reg 1 % clk $end
$var reg 1 & reset $end
$var reg 1 ' seq $end
$var reg 1 ( det $end
$comment state is not handled $end
$upscope $end
$upscope $end
$enddefinitions $end
#0
0!
0"
1#
U$
0%
0&
1'
U(
#50000000
1!
0$
1%
0(
#100000000
0!
0#
0%
0'
#150000000
1!
1#
1%
1'
#200000000
0!
0%
#250000000
1!
1%
#300000000
0!
0#
0%
0'
#350000000
1!
1#
1%
1'
#400000000
0!
0#
0%
0'
#450000000
1!
1#
1%
1'
