Solution/Upcounter/result.vcd
$date
  Sat Feb 10 22:33:28 2024
$end
$version
  GHDL v0
$end
$timescale
  1 fs
$end
$scope module standard $end
$upscope $end
$scope module std_logic_1164 $end
$upscope $end
$scope module t_flipflop_tb $end
$var reg 1 ! clk $end
$var reg 1 " clr $end
$var reg 3 # q[2:0] $end
$scope module counter1 $end
$var reg 1 $ clk $end
$var reg 1 % clr $end
$var reg 3 & q[2:0] $end
$var reg 1 ' qa $end
$var reg 1 ( qb $end
$var reg 1 ) qc $end
$var reg 1 * tc $end
$scope module t1 $end
$var reg 1 + t $end
$var reg 1 , clk $end
$var reg 1 - clr $end
$var reg 1 . q $end
$var reg 1 / state $end
$upscope $end
$scope module t2 $end
$var reg 1 0 t $end
$var reg 1 1 clk $end
$var reg 1 2 clr $end
$var reg 1 3 q $end
$var reg 1 4 state $end
$upscope $end
$scope module t3 $end
$var reg 1 5 t $end
$var reg 1 6 clk $end
$var reg 1 7 clr $end
$var reg 1 8 q $end
$var reg 1 9 state $end
$upscope $end
$scope module a1 $end
$var reg 1 : a $end
$var reg 1 ; b $end
$var reg 1 < z $end
$upscope $end
$upscope $end
$upscope $end
$enddefinitions $end
#0
0!
1"
b000 #
0$
1%
b000 &
0'
0(
U)
0*
1+
0,
1-
0.
0/
00
01
12
03
04
05
06
17
08
09
0:
0;
0<
#10000000
0"
0%
0-
02
07
#30000000
1!
b001 #
1$
b001 &
1'
1,
1.
1/
10
11
16
1:
#60000000
0!
0$
0,
01
06
#90000000
1!
1"
b000 #
1$
1%
b000 &
0'
1,
1-
0.
0/
00
11
12
16
17
0:
#100000000
0"
0%
0-
02
07
#120000000
0!
0$
0,
01
06
#150000000
1!
b001 #
1$
b001 &
1'
1,
1.
1/
10
11
16
1:
#180000000
0!
1"
b000 #
0$
1%
b000 &
0'
0,
1-
0.
0/
00
01
12
06
17
0:
#190000000
0"
0%
0-
02
07
#210000000
1!
b001 #
1$
b001 &
1'
1,
1.
1/
10
11
16
1:
#240000000
0!
0$
0,
01
06
#270000000
1!
1"
b000 #
1$
1%
b000 &
0'
1,
1-
0.
0/
00
11
12
16
17
0:
#280000000
0"
0%
0-
02
07
#300000000
0!
0$
0,
01
06
#330000000
1!
b001 #
1$
b001 &
1'
1,
1.
1/
10
11
16
1:
#360000000
0!
1"
b000 #
0$
1%
b000 &
0'
0,
1-
0.
0/
00
01
12
06
17
0:
#370000000
0"
0%
0-
02
07
#390000000
1!
b001 #
1$
b001 &
1'
1,
1.
1/
10
11
16
1:
#420000000
0!
0$
0,
01
06
#450000000
1!
1"
b000 #
1$
1%
b000 &
0'
1,
1-
0.
0/
00
11
12
16
17
0:
#460000000
0"
0%
0-
02
07
#480000000
0!
0$
0,
01
06
#510000000
1!
b001 #
1$
b001 &
1'
1,
1.
1/
10
11
16
1:
#540000000
0!
1"
b000 #
0$
1%
b000 &
0'
0,
1-
0.
0/
00
01
12
06
17
0:
#550000000
0"
0%
0-
02
07
#570000000
1!
b001 #
1$
b001 &
1'
1,
1.
1/
10
11
16
1:
#600000000
0!
0$
0,
01
06
#630000000
1!
1"
b000 #
1$
1%
b000 &
0'
1,
1-
0.
0/
00
11
12
16
17
0:
#640000000
0"
0%
0-
02
07
#660000000
0!
0$
0,
01
06
#690000000
1!
b001 #
1$
b001 &
1'
1,
1.
1/
10
11
16
1:
#720000000
0!
1"
b000 #
0$
1%
b000 &
0'
0,
1-
0.
0/
00
01
12
06
17
0:
#730000000
0"
0%
0-
02
07
#750000000
1!
b001 #
1$
b001 &
1'
1,
1.
1/
10
11
16
1:
#780000000
0!
0$
0,
01
06
#810000000
1!
1"
b000 #
1$
1%
b000 &
0'
1,
1-
0.
0/
00
11
12
16
17
0:
#820000000
0"
0%
0-
02
07
#840000000
0!
0$
0,
01
06
#870000000
1!
b001 #
1$
b001 &
1'
1,
1.
1/
10
11
16
1:
#900000000
0!
1"
b000 #
0$
1%
b000 &
0'
0,
1-
0.
0/
00
01
12
06
17
0:
#910000000
0"
0%
0-
02
07
#930000000
1!
b001 #
1$
b001 &
1'
1,
1.
1/
10
11
16
1:
#960000000
0!
0$
0,
01
06
#990000000
1!
1"
b000 #
1$
1%
b000 &
0'
1,
1-
0.
0/
00
11
12
16
17
0:
#1000000000
0"
0%
0-
02
07
#1020000000
0!
0$
0,
01
06
#1050000000
1!
b001 #
1$
b001 &
1'
1,
1.
1/
10
11
16
1:
#1080000000
0!
1"
b000 #
0$
1%
b000 &
0'
0,
1-
0.
0/
00
01
12
06
17
0:
#1090000000
0"
0%
0-
02
07
#1110000000
1!
b001 #
1$
b001 &
1'
1,
1.
1/
10
11
16
1:
#1140000000
0!
0$
0,
01
06
#1170000000
1!
1"
b000 #
1$
1%
b000 &
0'
1,
1-
0.
0/
00
11
12
16
17
0:
#1180000000
0"
0%
0-
02
07
#1200000000
0!
0$
0,
01
06
#1230000000
1!
b001 #
1$
b001 &
1'
1,
1.
1/
10
11
16
1:
#1260000000
0!
1"
b000 #
0$
1%
b000 &
0'
0,
1-
0.
0/
00
01
12
06
17
0:
#1270000000
0"
0%
0-
02
07
#1290000000
1!
b001 #
1$
b001 &
1'
1,
1.
1/
10
11
16
1:
#1320000000
0!
0$
0,
01
06
#1350000000
1!
1"
b000 #
1$
1%
b000 &
0'
1,
1-
0.
0/
00
11
12
16
17
0:
#1360000000
0"
0%
0-
02
07
#1380000000
0!
0$
0,
01
06
#1410000000
1!
b001 #
1$
b001 &
1'
1,
1.
1/
10
11
16
1:
#1440000000
0!
1"
b000 #
0$
1%
b000 &
0'
0,
1-
0.
0/
00
01
12
06
17
0:
#1450000000
0"
0%
0-
02
07
#1470000000
1!
b001 #
1$
b001 &
1'
1,
1.
1/
10
11
16
1:
#1500000000
0!
0$
0,
01
06
#1530000000
1!
1"
b000 #
1$
1%
b000 &
0'
1,
1-
0.
0/
00
11
12
16
17
0:
#1540000000
0"
0%
0-
02
07
#1560000000
0!
0$
0,
01
06
#1590000000
1!
b001 #
1$
b001 &
1'
1,
1.
1/
10
11
16
1:
#1620000000
0!
1"
b000 #
0$
1%
b000 &
0'
0,
1-
0.
0/
00
01
12
06
17
0:
#1630000000
0"
0%
0-
02
07
#1650000000
1!
b001 #
1$
b001 &
1'
1,
1.
1/
10
11
16
1:
#1680000000
0!
0$
0,
01
06
#1710000000
1!
1"
b000 #
1$
1%
b000 &
0'
1,
1-
0.
0/
00
11
12
16
17
0:
#1720000000
0"
0%
0-
02
07
#1740000000
0!
0$
0,
01
06
#1770000000
1!
b001 #
1$
b001 &
1'
1,
1.
1/
10
11
16
1:
#1800000000
0!
1"
b000 #
0$
1%
b000 &
0'
0,
1-
0.
0/
00
01
12
06
17
0:
#1810000000
0"
0%
0-
02
07
#1830000000
1!
b001 #
1$
b001 &
1'
1,
1.
1/
10
11
16
1:
#1860000000
0!
0$
0,
01
06
#1890000000
1!
1"
b000 #
1$
1%
b000 &
0'
1,
1-
0.
0/
00
11
12
16
17
0:
#1900000000
0"
0%
0-
02
07
#1920000000
0!
0$
0,
01
06
#1950000000
1!
b001 #
1$
b001 &
1'
1,
1.
1/
10
11
16
1:
#1980000000
0!
1"
b000 #
0$
1%
b000 &
0'
0,
1-
0.
0/
00
01
12
06
17
0:
#1990000000
0"
0%
0-
02
07
#2010000000
1!
b001 #
1$
b001 &
1'
1,
1.
1/
10
11
16
1:
#2040000000
0!
0$
0,
01
06
#2070000000
1!
1"
b000 #
1$
1%
b000 &
0'
1,
1-
0.
0/
00
11
12
16
17
0:
#2080000000
0"
0%
0-
02
07
#2100000000
0!
0$
0,
01
06
#2130000000
1!
b001 #
1$
b001 &
1'
1,
1.
1/
10
11
16
1:
#2160000000
0!
1"
b000 #
0$
1%
b000 &
0'
0,
1-
0.
0/
00
01
12
06
17
0:
#2170000000
0"
0%
0-
02
07
#2190000000
1!
b001 #
1$
b001 &
1'
1,
1.
1/
10
11
16
1:
#2220000000
0!
0$
0,
01
06
#2250000000
1!
1"
b000 #
1$
1%
b000 &
0'
1,
1-
0.
0/
00
11
12
16
17
0:
#2260000000
0"
0%
0-
02
07
#2280000000
0!
0$
0,
01
06
#2310000000
1!
b001 #
1$
b001 &
1'
1,
1.
1/
10
11
16
1:
#2340000000
0!
1"
b000 #
0$
1%
b000 &
0'
0,
1-
0.
0/
00
01
12
06
17
0:
#2350000000
0"
0%
0-
02
07
#2370000000
1!
b001 #
1$
b001 &
1'
1,
1.
1/
10
11
16
1:
#2400000000
0!
0$
0,
01
06
#2430000000
1!
1"
b000 #
1$
1%
b000 &
0'
1,
1-
0.
0/
00
11
12
16
17
0:
#2440000000
0"
0%
0-
02
07
#2460000000
0!
0$
0,
01
06
#2490000000
1!
b001 #
1$
b001 &
1'
1,
1.
1/
10
11
16
1:
#2520000000
0!
1"
b000 #
0$
1%
b000 &
0'
0,
1-
0.
0/
00
01
12
06
17
0:
#2530000000
0"
0%
0-
02
07
#2550000000
1!
b001 #
1$
b001 &
1'
1,
1.
1/
10
11
16
1:
#2580000000
0!
0$
0,
01
06
#2610000000
1!
1"
b000 #
1$
1%
b000 &
0'
1,
1-
0.
0/
00
11
12
16
17
0:
#2620000000
0"
0%
0-
02
07
#2640000000
0!
0$
0,
01
06
#2670000000
1!
b001 #
1$
b001 &
1'
1,
1.
1/
10
11
16
1:
#2700000000
0!
1"
b000 #
0$
1%
b000 &
0'
0,
1-
0.
0/
00
01
12
06
17
0:
#2710000000
0"
0%
0-
02
07
#2730000000
1!
b001 #
1$
b001 &
1'
1,
1.
1/
10
11
16
1:
#2760000000
0!
0$
0,
01
06
#2790000000
1!
1"
b000 #
1$
1%
b000 &
0'
1,
1-
0.
0/
00
11
12
16
17
0:
#2800000000
0"
0%
0-
02
07
#2820000000
0!
0$
0,
01
06
#2850000000
1!
b001 #
1$
b001 &
1'
1,
1.
1/
10
11
16
1:
#2880000000
0!
1"
b000 #
0$
1%
b000 &
0'
0,
1-
0.
0/
00
01
12
06
17
0:
#2890000000
0"
0%
0-
02
07
#2910000000
1!
b001 #
1$
b001 &
1'
1,
1.
1/
10
11
16
1:
#2940000000
0!
0$
0,
01
06
#2970000000
1!
1"
b000 #
1$
1%
b000 &
0'
1,
1-
0.
0/
00
11
12
16
17
0:
#2980000000
0"
0%
0-
02
07
#3000000000
0!
0$
0,
01
06
#3030000000
1!
b001 #
1$
b001 &
1'
1,
1.
1/
10
11
16
1:
#3060000000
0!
1"
b000 #
0$
1%
b000 &
0'
0,
1-
0.
0/
00
01
12
06
17
0:
#3070000000
0"
0%
0-
02
07
#3090000000
1!
b001 #
1$
b001 &
1'
1,
1.
1/
10
11
16
1:
#3120000000
0!
0$
0,
01
06
#3150000000
1!
1"
b000 #
1$
1%
b000 &
0'
1,
1-
0.
0/
00
11
12
16
17
0:
#3160000000
0"
0%
0-
02
07
#3180000000
0!
0$
0,
01
06
#3210000000
1!
b001 #
1$
b001 &
1'
1,
1.
1/
10
11
16
1:
#3240000000
0!
1"
b000 #
0$
1%
b000 &
0'
0,
1-
0.
0/
00
01
12
06
17
0:
#3250000000
0"
0%
0-
02
07
#3270000000
1!
b001 #
1$
b001 &
1'
1,
1.
1/
10
11
16
1:
#3300000000
0!
0$
0,
01
06
#3330000000
1!
1"
b000 #
1$
1%
b000 &
0'
1,
1-
0.
0/
00
11
12
16
17
0:
#3340000000
0"
0%
0-
02
07
#3360000000
0!
0$
0,
01
06
#3390000000
1!
b001 #
1$
b001 &
1'
1,
1.
1/
10
11
16
1:
#3420000000
0!
1"
b000 #
0$
1%
b000 &
0'
0,
1-
0.
0/
00
01
12
06
17
0:
#3430000000
0"
0%
0-
02
07
#3450000000
1!
b001 #
1$
b001 &
1'
1,
1.
1/
10
11
16
1:
#3480000000
0!
0$
0,
01
06
#3510000000
1!
1"
b000 #
1$
1%
b000 &
0'
1,
1-
0.
0/
00
11
12
16
17
0:
#3520000000
0"
0%
0-
02
07
#3540000000
0!
0$
0,
01
06
#3570000000
1!
b001 #
1$
b001 &
1'
1,
1.
1/
10
11
16
1:
#3600000000
0!
1"
b000 #
0$
1%
b000 &
0'
0,
1-
0.
0/
00
01
12
06
17
0:
#3610000000
0"
0%
0-
02
07
#3630000000
1!
b001 #
1$
b001 &
1'
1,
1.
1/
10
11
16
1:
#3660000000
0!
0$
0,
01
06
#3690000000
1!
1"
b000 #
1$
1%
b000 &
0'
1,
1-
0.
0/
00
11
12
16
17
0:
#3700000000
0"
0%
0-
02
07
#3720000000
0!
0$
0,
01
06
#3750000000
1!
b001 #
1$
b001 &
1'
1,
1.
1/
10
11
16
1:
#3780000000
0!
1"
b000 #
0$
1%
b000 &
0'
0,
1-
0.
0/
00
01
12
06
17
0:
#3790000000
0"
0%
0-
02
07
#3810000000
1!
b001 #
1$
b001 &
1'
1,
1.
1/
10
11
16
1:
#3840000000
0!
0$
0,
01
06
#3870000000
1!
1"
b000 #
1$
1%
b000 &
0'
1,
1-
0.
0/
00
11
12
16
17
0:
#3880000000
0"
0%
0-
02
07
#3900000000
0!
0$
0,
01
06
#3930000000
1!
b001 #
1$
b001 &
1'
1,
1.
1/
10
11
16
1:
#3960000000
0!
1"
b000 #
0$
1%
b000 &
0'
0,
1-
0.
0/
00
01
12
06
17
0:
#3970000000
0"
0%
0-
02
07
#3990000000
1!
b001 #
1$
b001 &
1'
1,
1.
1/
10
11
16
1:
#4020000000
0!
0$
0,
01
06
#4050000000
1!
1"
b000 #
1$
1%
b000 &
0'
1,
1-
0.
0/
00
11
12
16
17
0:
#4060000000
0"
0%
0-
02
07
#4080000000
0!
0$
0,
01
06
#4110000000
1!
b001 #
1$
b001 &
1'
1,
1.
1/
10
11
16
1:
#4140000000
0!
1"
b000 #
0$
1%
b000 &
0'
0,
1-
0.
0/
00
01
12
06
17
0:
#4150000000
0"
0%
0-
02
07
#4170000000
1!
b001 #
1$
b001 &
1'
1,
1.
1/
10
11
16
1:
#4200000000
0!
0$
0,
01
06
#4230000000
1!
1"
b000 #
1$
1%
b000 &
0'
1,
1-
0.
0/
00
11
12
16
17
0:
#4240000000
0"
0%
0-
02
07
#4260000000
0!
0$
0,
01
06
#4290000000
1!
b001 #
1$
b001 &
1'
1,
1.
1/
10
11
16
1:
#4320000000
0!
1"
b000 #
0$
1%
b000 &
0'
0,
1-
0.
0/
00
01
12
06
17
0:
#4330000000
0"
0%
0-
02
07
#4350000000
1!
b001 #
1$
b001 &
1'
1,
1.
1/
10
11
16
1:
#4380000000
0!
0$
0,
01
06
#4410000000
1!
1"
b000 #
1$
1%
b000 &
0'
1,
1-
0.
0/
00
11
12
16
17
0:
#4420000000
0"
0%
0-
02
07
#4440000000
0!
0$
0,
01
06
#4470000000
1!
b001 #
1$
b001 &
1'
1,
1.
1/
10
11
16
1:
#4500000000
0!
1"
b000 #
0$
1%
b000 &
0'
0,
1-
0.
0/
00
01
12
06
17
0:
#4510000000
0"
0%
0-
02
07
#4530000000
1!
b001 #
1$
b001 &
1'
1,
1.
1/
10
11
16
1:
#4560000000
0!
0$
0,
01
06
#4590000000
1!
1"
b000 #
1$
1%
b000 &
0'
1,
1-
0.
0/
00
11
12
16
17
0:
#4600000000
0"
0%
0-
02
07
#4620000000
0!
0$
0,
01
06
#4650000000
1!
b001 #
1$
b001 &
1'
1,
1.
1/
10
11
16
1:
#4680000000
0!
1"
b000 #
0$
1%
b000 &
0'
0,
1-
0.
0/
00
01
12
06
17
0:
#4690000000
0"
0%
0-
02
07
#4710000000
1!
b001 #
1$
b001 &
1'
1,
1.
1/
10
11
16
1:
#4740000000
0!
0$
0,
01
06
#4770000000
1!
1"
b000 #
1$
1%
b000 &
0'
1,
1-
0.
0/
00
11
12
16
17
0:
#4780000000
0"
0%
0-
02
07
#4800000000
0!
0$
0,
01
06
#4830000000
1!
b001 #
1$
b001 &
1'
1,
1.
1/
10
11
16
1:
#4860000000
0!
1"
b000 #
0$
1%
b000 &
0'
0,
1-
0.
0/
00
01
12
06
17
0:
#4870000000
0"
0%
0-
02
07
#4890000000
1!
b001 #
1$
b001 &
1'
1,
1.
1/
10
11
16
1:
#4920000000
0!
0$
0,
01
06
#4950000000
1!
1"
b000 #
1$
1%
b000 &
0'
1,
1-
0.
0/
00
11
12
16
17
0:
#4960000000
0"
0%
0-
02
07
